¿Se puede acertar en Wordle? | Javier Álvarez Liébana
…
# Exporte
write_csv(datos_CREA, file = "./datos/CREA_procesado.csv")

Tras este preprocesamiento nuestro corpus se compone aproximadamente de 700 000 palabras/vocablos, de las que tenemos

frecuencia absoluta: frec_abs (nº de documentos analizados en los que aparece)

frecuencia normalizada: frec_norm (veces que aparece por cada 1000 documentos).

La carga desde el archivo ya preprocesado puede hacerse con read_csv().

# Archivo ya preprocesado
datos_CREA <- read_csv(file = "./datos/CREA_procesado.csv")
datos_CREA
## # A tibble: 693,402 × 3
##    palabra frec_abs frec_norm
##    <chr>      <dbl>     <dbl>
##  1 de       9999518    65546.
##  2 la       6277560    41149.
##  3 que      4681839    30689.
##  4 el       4569652    29953.
##  5 en       4234281    27755.
##  6 y        4180279    27401.
##  7 a        3260939    21375.
##  8 los      2618657    17165.
##  9 se       2022514    13257.
## 10 del      1857225    12174.
## # ℹ 693,392 more rows
…
datos_CREA
## # A tibble: 693,402 × 8
##    palabra frec_abs frec_norm frec_relativa log_frec_abs log_frec_rel
##    <chr>      <dbl>     <dbl>         <dbl>        <dbl>        <dbl>
##  1 de       9999518    65546.        0.0664         16.1    0.0000164
##  2 la       6277560    41149.        0.0417         15.7    0.0000160
##  3 que      4681839    30689.        0.0311         15.4    0.0000157
##  4 el       4569652    29953.        0.0303         15.3    0.0000156
##  5 en       4234281    27755.        0.0281         15.3    0.0000156
##  6 y        4180279    27401.        0.0278         15.2    0.0000155
##  7 a        3260939    21375.        0.0217         15.0    0.0000153
##  8 los      2618657    17165.        0.0174         14.8    0.0000151
##  9 se       2022514    13257.        0.0134         14.5    0.0000148
## 10 del      1857225    12174.        0.0123         14.4    0.0000147
## # ℹ 693,392 more rows
## # ℹ 2 more variables: int_frec_norm <fct>, nletras <int>
…
WORDLE_puntuado <-
  puntuar_palabras(datos_palabras_wordle,
                   puntuacion_letras_5,
                   letras_iniciales, letras_finales)
## Warning: There were 234 warnings in `mutate()`.
## The first warning was:
## ℹ In argument: `punt_letras = apply(...)`.
## Caused by warning in `letras_puntuadas$peso_promediado_rel[letras_puntuadas$matriz_letras %in% x] * c(
##     (letras_iniciales %>% filter(letras_iniciales == x[1]) %>% pull(porc)) / 100,
##     1 / 5, 1 / 5, 1 / 5, (letras_finales %>% filter(letras_finales == rev(x)[1]) %>%
##       pull(porc)) / 100)`:
## ! longer object length is not a multiple of shorter object length
## ℹ Run `dplyr::last_dplyr_warnings()` to see the 233 remaining warnings.
CREA_puntuado$palabras_puntuadas
## # A tibble: 3,529 × 13
##    palabra frec_abs frec_norm frec_relativa log_frec_abs log_frec_rel
##    <chr>      <dbl>     <dbl>         <dbl>        <dbl>        <dbl>
##  1 sobre     289704     1899.      0.00192          12.6    0.0000128
##  2 entre     267493     1753.      0.00178          12.5    0.0000127
##  3 habia     223430     1465.      0.00148          12.3    0.0000126
##  4 hasta     202935     1330.      0.00135          12.2    0.0000125
##  5 desde     198647     1302.      0.00132          12.2    0.0000124
##  6 puede     161219     1057.      0.00107          12.0    0.0000122
##  7 todos     158168     1037.      0.00105          12.0    0.0000122
##  8 parte     148750      975.      0.000988         11.9    0.0000121
##  9 tiene     147274      965.      0.000978         11.9    0.0000121
## 10 donde     132077      866.      0.000877         11.8    0.0000120
## # ℹ 3,519 more rows
## # ℹ 7 more variables: int_frec_norm <fct>, nletras <dbl>, punt_letras <dbl>,
## #   ind_blau <dbl>, ind_blau_norm <dbl>, punt_letras_total <dbl>,
## #   punt_total_w <dbl>
WORDLE_puntuado$palabras_puntuadas
## # A tibble: 620 × 13
##    palabra frec_abs frec_norm frec_relativa log_frec_abs log_frec_rel
##    <chr>      <dbl>     <dbl>         <dbl>        <dbl>        <dbl>
##  1 entre     267493     1753.      0.00178          12.5    0.0000127
##  2 donde     132077      866.      0.000877         11.8    0.0000120
##  3 menos     103498      678.      0.000687         11.5    0.0000118
##  4 mundo     101745      667.      0.000676         11.5    0.0000118
##  5 forma      97165      637.      0.000645         11.5    0.0000117
##  6 hacer      96063      630.      0.000638         11.5    0.0000117
##  7 mayor      90166      591.      0.000599         11.4    0.0000116
##  8 ellos      84636      555.      0.000562         11.3    0.0000116
##  9 hecho      83898      550.      0.000557         11.3    0.0000116
## 10 lugar      78250      513.      0.000520         11.3    0.0000115
## # ℹ 610 more rows
## # ℹ 7 more variables: int_frec_norm <fct>, nletras <dbl>, punt_letras <dbl>,
## #   ind_blau <dbl>, ind_blau_norm <dbl>, punt_letras_total <dbl>,
## #   punt_total_w <dbl>
…
